LEC 143 Algal Bioassay Analysis
…
# Summarise the data
AB_data_summary <- AB_data_long %>% 
    group_by(Lake, Treatment, Day) %>% 
    summarise(lnChlaMean = mean(lnChlaL), lnChlaSE = sd(lnChlaL)/sqrt(12)) %>% 
    ungroup()

## `summarise()` has grouped output by 'Lake', 'Treatment'. You can override using
## the `.groups` argument.

# Print the table of summarised data
AB_data_summary

## # A tibble: 64 × 5
##    Lake       Treatment   Day lnChlaMean lnChlaSE
##    <fct>      <fct>     <int>      <dbl>    <dbl>
##  1 Elterwater Control       0       0     NA     
##  2 Elterwater Control       7       1.55   0.0451
##  3 Elterwater Control      14       2.36   0.0296
##  4 Elterwater Control      21       3.16   0.0340
##  5 Elterwater N             0       0     NA     
##  6 Elterwater N             7       1.43   0.0589
##  7 Elterwater N            14       2.44   0.0252
##  8 Elterwater N            21       3.21   0.0183
##  9 Elterwater NP            0       0     NA     
## 10 Elterwater NP            7       1.48   0.0667
## # ℹ 54 more rows
…
